\relax 
\select@language{english}
\@writefile{toc}{\select@language{english}}
\@writefile{lof}{\select@language{english}}
\@writefile{lot}{\select@language{english}}
\@writefile{toc}{\contentsline {section}{\numberline {0.1}Reconstruction of Argument}{1}}
\@writefile{toc}{\contentsline {section}{\numberline {0.2}Assesment of the argument}{2}}
