\relax 
\select@language{english}
\@writefile{toc}{\select@language{english}}
\@writefile{lof}{\select@language{english}}
\@writefile{lot}{\select@language{english}}
\citation{Descartes}
\bibcite{Text}{1}
\bibcite{Locke}{2}
\citation{Text}
\bibcite{Descartes}{3}
\citation{Text}
