\relax 
\select@language{english}
\@writefile{toc}{\select@language{english}}
\@writefile{lof}{\select@language{english}}
\@writefile{lot}{\select@language{english}}
\citation{essay-deathpenalty}
\citation{maslow}
\bibdata{Essay}
\bibcite{maslow}{{1}{1943}{{Maslow}}{{}}}
\bibcite{essay-deathpenalty}{{2}{1994}{{Reiman}}{{}}}
\bibstyle{mla-good}
