\relax 
\select@language{english}
\@writefile{toc}{\select@language{english}}
\@writefile{lof}{\select@language{english}}
\@writefile{lot}{\select@language{english}}
\citation{organ:historical}
\citation{bbc_history}
\citation{bbc_glance}
\@writefile{toc}{\contentsline {section}{\numberline {1.1}Introduction}{1}}
\@writefile{toc}{\contentsline {section}{\numberline {1.2}Hinduism Today}{1}}
\citation{smith:modernity}
\citation{ashby:trends}
\citation{ashby:trends}
\citation{organ:historical}
\@writefile{toc}{\contentsline {section}{\numberline {1.3}Pre-Classical Period}{2}}
\citation{organ:historical}
\@writefile{toc}{\contentsline {section}{\numberline {1.4}The Aryans and the Vedic period}{3}}
\@writefile{toc}{\contentsline {section}{\numberline {1.5}Ancient India: The Kingdom Age}{4}}
\citation{organ:historical}
\@writefile{toc}{\contentsline {section}{\numberline {1.6}The Middle ages and Pre-modern period}{5}}
\citation{smith:modernity}
\bibdata{Essay}
\@writefile{toc}{\contentsline {section}{\numberline {1.7}The Modern Times}{7}}
\bibcite{ashby:trends}{{1}{1974}{{Ashby}}{{}}}
\bibcite{bbc_history}{{2}{2005}{{BBC}}{{}}}
\bibcite{bbc_glance}{{3}{2006}{{BBC}}{{}}}
\bibcite{organ:historical}{{4}{1974}{{Organ}}{{}}}
\bibcite{smith:modernity}{{5}{2003}{{Smith}}{{}}}
\bibstyle{humannat}
