This is BibTeX, Version 0.99c (Web2C 7.5.7)
The top-level auxiliary file: Essay.aux
The style file: humannat.bst
Database file #1: Essay.bib
You've used 5 entries,
            2155 wiz_defined-function locations,
            528 strings with 4407 characters,
and the built_in function-call counts, 1336 in all, are:
= -- 124
> -- 30
< -- 5
+ -- 10
- -- 10
* -- 97
:= -- 255
add.period$ -- 15
call.type$ -- 5
change.case$ -- 27
chr.to.int$ -- 5
cite$ -- 5
duplicate$ -- 59
empty$ -- 103
format.name$ -- 15
if$ -- 253
int.to.chr$ -- 1
int.to.str$ -- 0
missing$ -- 6
newline$ -- 28
num.names$ -- 15
pop$ -- 27
preamble$ -- 1
purify$ -- 30
quote$ -- 0
skip$ -- 46
stack$ -- 0
substring$ -- 60
swap$ -- 8
text.length$ -- 0
text.prefix$ -- 0
top$ -- 0
type$ -- 24
warning$ -- 0
while$ -- 10
width$ -- 0
write$ -- 62
